Book Solutions - Chapter 14
…
    12
1025

Question 2

Expand the following calls to count() to instead use group_by(), summarize(), and arrange():

flights |> count(dest, sort = TRUE)

flights |>
  group_by(dest) |>
  summarise(n = n()) |>
  arrange(desc(n))

# A tibble: 105 × 2
   dest      n
   <chr> <int>
 1 ORD   17283
 2 ATL   17215
 3 LAX   16174
 4 BOS   15508
 5 MCO   14082
 6 CLT   14064
 7 SFO   13331
 8 FLL   12055
 9 MIA   11728
10 DCA    9705
# ℹ 95 more rows

flights |> count(tailnum, wt = distance)

flights |>
  group_by(tailnum) |>
  summarise(n = sum(distance))

# A tibble: 4,044 × 2
   tailnum      n
   <chr>    <dbl>
 1 D942DN    3418
 2 N0EGMQ  250866
 3 N10156  115966
 4 N102UW   25722
 5 N103US   24619
 6 N104UW   25157
 7 N10575  150194
 8 N105UW   23618
 9 N107US   21677
10 N108UW   32070
# ℹ 4,034 more rows
