Book Solutions - Chapter 18
…
###########
flights |>
  filter(dest == "HNL")

# A tibble: 707 × 19
    year month   day dep_time sched_dep_time dep_delay arr_time sched_arr_time
   <int> <int> <int>    <int>          <int>     <dbl>    <int>          <int>
 1  2013     1     1      857            900        -3     1516           1530
 2  2013     1     1     1344           1344         0     2005           1944
 3  2013     1     2      909            900         9     1525           1530
 4  2013     1     2     1344           1344         0     1940           1944
 5  2013     1     3      914            900        14     1504           1530
 6  2013     1     3     1418           1341        37     2006           1935
 7  2013     1     4      900            900         0     1516           1530
 8  2013     1     4     1343           1341         2     1932           1935
 9  2013     1     5      858            900        -2     1519           1530
10  2013     1     5     1329           1335        -6     1850           1935
# ℹ 697 more rows
# ℹ 11 more variables: arr_delay <dbl>, carrier <chr>, flight <int>,
#   tailnum <chr>, origin <chr>, dest <chr>, air_time <dbl>, distance <dbl>,
#   hour <dbl>, minute <dbl>, time_hour <dttm>

###########

f1 |>
  filter(flight_time > 6*60)

# A tibble: 106 × 14
   dep_time            sched_dep_time      dep_delay arr_time           
   <dttm>              <dttm>                  <dbl> <dttm>             
 1 2013-01-01 08:57:00 2013-01-01 09:00:00        -3 2013-01-01 15:16:00
 2 2013-01-01 13:44:00 2013-01-01 13:44:00         0 2013-01-01 20:05:00
 3 2013-01-02 09:09:00 2013-01-02 09:00:00         9 2013-01-02 15:25:00
 4 2013-01-04 09:00:00 2013-01-04 09:00:00         0 2013-01-04 15:16:00
 5 2013-01-05 08:58:00 2013-01-05 09:00:00        -2 2013-01-05 15:19:00
 6 2013-01-08 09:01:00 2013-01-08 09:00:00         1 2013-01-08 15:04:00
 7 2013-01-08 13:44:00 2013-01-08 13:41:00         3 2013-01-08 19:51:00
 8 2013-01-09 06:41:00 2013-01-09 09:00:00      1301 2013-01-09 12:42:00
 9 2013-01-09 13:40:00 2013-01-09 13:41:00        -1 2013-01-09 20:19:00
10 2013-01-13 08:56:00 2013-01-13 09:00:00        -4 2013-01-13 15:23:00
# ℹ 96 more rows
# ℹ 10 more variables: sched_arr_time <dttm>, arr_delay <dbl>, carrier <chr>,
#   flight <int>, tailnum <chr>, origin <chr>, dest <chr>, air_time <dbl>,
#   distance <dbl>, flight_time <drtn>
…
