Book Solutions - Chapter 24
…
Question 3

Follow the steps used for titles to create similar tables for the aliases, allegiances, books, and TV series for the Game of Thrones characters.

# A tibble for aliases
aliases = tibble(json = got_chars) |>
  unnest_wider(json) |>
  select(id, aliases) |>
  unnest_longer(aliases) |>
  filter(aliases != "")
aliases

# A tibble: 107 × 2
      id aliases           
   <int> <chr>             
 1  1022 Prince of Fools   
 2  1022 Theon Turncloak   
 3  1022 Reek              
 4  1022 Theon Kinslayer   
 5  1052 The Imp           
 6  1052 Halfman           
 7  1052 The boyman        
 8  1052 Giant of Lannister
 9  1052 Lord Tywin's Doom 
10  1052 Lord Tywin's Bane 
# ℹ 97 more rows

# A tibble for allegiances
allegiances = tibble(json = got_chars) |>
  unnest_wider(json) |>
  select(id, allegiances) |>
  unnest_longer(allegiances) |>
  filter(allegiances != "")
allegiances

# A tibble: 33 × 2
      id allegiances                      
   <int> <chr>                            
 1  1022 House Greyjoy of Pyke            
 2  1052 House Lannister of Casterly Rock 
 3  1074 House Greyjoy of Pyke            
 4  1166 House Nymeros Martell of Sunspear
 5   130 House Nymeros Martell of Sunspear
 6  1303 House Targaryen of King's Landing
 7  1319 House Baratheon of Dragonstone   
 8  1319 House Seaworth of Cape Wrath     
 9   148 House Stark of Winterfell        
10   149 House Oakheart of Old Oak        
# ℹ 23 more rows

# A tibble for aliases
books = tibble(json = got_chars) |>
  unnest_wider(json) |>
  select(id, books) |>
  unnest_longer(books) |>
  filter(books != "")
books

# A tibble: 77 × 2
      id books                    
   <int> <chr>                    
 1  1022 A Game of Thrones        
 2  1022 A Storm of Swords        
 3  1022 A Feast for Crows        
 4  1052 A Feast for Crows        
 5  1052 The World of Ice and Fire
 6  1074 A Game of Thrones        
 7  1074 A Clash of Kings         
 8  1074 A Storm of Swords        
 9  1109 A Clash of Kings         
10  1166 A Game of Thrones        
# ℹ 67 more rows

# A tibble for aliases
tvSeries = tibble(json = got_chars) |>
  unnest_wider(json) |>
  select(id, tvSeries) |>
  unnest_longer(tvSeries) |>
  filter(tvSeries != "")
tvSeries

# A tibble: 93 × 2
      id tvSeries
   <int> <chr>   
 1  1022 Season 1
 2  1022 Season 2
 3  1022 Season 3
 4  1022 Season 4
 5  1022 Season 5
 6  1022 Season 6
 7  1052 Season 1
 8  1052 Season 2
 9  1052 Season 3
10  1052 Season 4
# ℹ 83 more rows
…
  # Select to view only the id column, and nested columns which are list-columns
  select(id, where(is.list)) |> 
  
  # Convert into long format by making different row for each column
  pivot_longer(
    where(is.list), 
    names_to = "name", 
    values_to = "value"
  ) |>  
  
  # Now unnest the value column to display one row for each list item
  unnest_longer(value)

# A tibble: 479 × 3
      id name        value                                               
   <int> <chr>       <chr>                                               
 1  1022 titles      Prince of Winterfell                                
 2  1022 titles      Lord of the Iron Islands (by law of the green lands)
 3  1022 aliases     Prince of Fools                                     
 4  1022 aliases     Theon Turncloak                                     
 5  1022 aliases     Reek                                                
 6  1022 aliases     Theon Kinslayer                                     
 7  1022 allegiances House Greyjoy of Pyke                               
 8  1022 books       A Game of Thrones                                   
 9  1022 books       A Storm of Swords                                   
10  1022 books       A Feast for Crows                                   
# ℹ 469 more rows
…
