Book Solutions - Chapter 20
…
How can you find all flights to those destinations?

We can first create a vector of the names of the top 10 destinations, using select(dest) and as_vector() . Thereafter, we can filter(dest %in% top_dest_vec) as shown below: –

flights2 <- flights |> 
  mutate(id = row_number(), .before = 1)
top_dest <- flights2 |>   
  count(dest, sort = TRUE) |>   
  head(10)
top_dest_vec <- top_dest |> select(dest) |> as_vector()
flights |>
  filter(dest %in% top_dest_vec) 

# A tibble: 141,145 × 19
    year month   day dep_time sched_dep_time dep_delay arr_time sched_arr_time
   <int> <int> <int>    <int>          <int>     <dbl>    <int>          <int>
 1  2013     1     1      542            540         2      923            850
 2  2013     1     1      554            600        -6      812            837
 3  2013     1     1      554            558        -4      740            728
 4  2013     1     1      555            600        -5      913            854
 5  2013     1     1      557            600        -3      838            846
 6  2013     1     1      558            600        -2      753            745
 7  2013     1     1      558            600        -2      924            917
 8  2013     1     1      558            600        -2      923            937
 9  2013     1     1      559            559         0      702            706
10  2013     1     1      600            600         0      851            858
# ℹ 141,135 more rows
# ℹ 11 more variables: arr_delay <dbl>, carrier <chr>, flight <int>,
#   tailnum <chr>, origin <chr>, dest <chr>, air_time <dbl>, distance <dbl>,
#   hour <dbl>, minute <dbl>, time_hour <dttm>
…
No, as we can see from the code below, every departing flight DOES NOT have corresponding weather data for that hour. 1556 flights do not have associated weather data; and these correspond to 38 different hours during the year.

# Number of flights that do not have associated weather data
flights |>
  anti_join(weather) |>
  nrow()

[1] 1556

# Number of distinct time_hours that do not have such data
flights |>
  anti_join(weather) |>
  distinct(time_hour)

# A tibble: 48 × 1
   time_hour          
   <dttm>             
 1 2013-01-01 12:00:00
 2 2013-01-06 06:00:00
 3 2013-10-23 06:00:00
 4 2013-10-23 07:00:00
 5 2013-10-25 23:00:00
 6 2013-10-25 20:00:00
 7 2013-10-25 21:00:00
 8 2013-10-25 22:00:00
 9 2013-10-26 21:00:00
10 2013-11-02 20:00:00
# ℹ 38 more rows
…
