RfDS2solutions - Chapter 4 (Data Transformation)
…
4.2.5 Exercises

library(tidyverse) 
library(nycflights13) 
library(gt)
data("flights")

In a single pipeline for each condition, find all flights that meet the condition:

Had an arrival delay of two or more hours

flights |>   
  filter(arr_delay >= 120)

# A tibble: 10,200 × 19
    year month   day dep_time sched_dep_time dep_delay arr_time sched_arr_time
   <int> <int> <int>    <int>          <int>     <dbl>    <int>          <int>
 1  2013     1     1      811            630       101     1047            830
 2  2013     1     1      848           1835       853     1001           1950
 3  2013     1     1      957            733       144     1056            853
 4  2013     1     1     1114            900       134     1447           1222
 5  2013     1     1     1505           1310       115     1638           1431
 6  2013     1     1     1525           1340       105     1831           1626
 7  2013     1     1     1549           1445        64     1912           1656
 8  2013     1     1     1558           1359       119     1718           1515
 9  2013     1     1     1732           1630        62     2028           1825
10  2013     1     1     1803           1620       103     2008           1750
# ℹ 10,190 more rows
# ℹ 11 more variables: arr_delay <dbl>, carrier <chr>, flight <int>,
#   tailnum <chr>, origin <chr>, dest <chr>, air_time <dbl>, distance <dbl>,
#   hour <dbl>, minute <dbl>, time_hour <dttm>

Flew to Houston (IAH or HOU)

flights |>     
  filter(dest %in% c("IAH", "HOU"))

# A tibble: 9,313 × 19
    year month   day dep_time sched_dep_time dep_delay arr_time sched_arr_time
   <int> <int> <int>    <int>          <int>     <dbl>    <int>          <int>
 1  2013     1     1      517            515         2      830            819
 2  2013     1     1      533            529         4      850            830
 3  2013     1     1      623            627        -4      933            932
 4  2013     1     1      728            732        -4     1041           1038
 5  2013     1     1      739            739         0     1104           1038
 6  2013     1     1      908            908         0     1228           1219
 7  2013     1     1     1028           1026         2     1350           1339
 8  2013     1     1     1044           1045        -1     1352           1351
 9  2013     1     1     1114            900       134     1447           1222
10  2013     1     1     1205           1200         5     1503           1505
# ℹ 9,303 more rows
# ℹ 11 more variables: arr_delay <dbl>, carrier <chr>, flight <int>,
#   tailnum <chr>, origin <chr>, dest <chr>, air_time <dbl>, distance <dbl>,
#   hour <dbl>, minute <dbl>, time_hour <dttm>

Were operated by United, American, or Delta

flights |>   
  filter(carrier %in% c("UA", "AA", "DL"))

# A tibble: 139,504 × 19
    year month   day dep_time sched_dep_time dep_delay arr_time sched_arr_time
   <int> <int> <int>    <int>          <int>     <dbl>    <int>          <int>
 1  2013     1     1      517            515         2      830            819
 2  2013     1     1      533            529         4      850            830
 3  2013     1     1      542            540         2      923            850
 4  2013     1     1      554            600        -6      812            837
 5  2013     1     1      554            558        -4      740            728
 6  2013     1     1      558            600        -2      753            745
 7  2013     1     1      558            600        -2      924            917
 8  2013     1     1      558            600        -2      923            937
 9  2013     1     1      559            600        -1      941            910
10  2013     1     1      559            600        -1      854            902
# ℹ 139,494 more rows
# ℹ 11 more variables: arr_delay <dbl>, carrier <chr>, flight <int>,
#   tailnum <chr>, origin <chr>, dest <chr>, air_time <dbl>, distance <dbl>,
#   hour <dbl>, minute <dbl>, time_hour <dttm>

Departed in summer (July, August, and September)

flights |>   
  filter(month %in% c(7, 8, 9))

# A tibble: 86,326 × 19
    year month   day dep_time sched_dep_time dep_delay arr_time sched_arr_time
   <int> <int> <int>    <int>          <int>     <dbl>    <int>          <int>
 1  2013     7     1        1           2029       212      236           2359
 2  2013     7     1        2           2359         3      344            344
 3  2013     7     1       29           2245       104      151              1
 4  2013     7     1       43           2130       193      322             14
 5  2013     7     1       44           2150       174      300            100
 6  2013     7     1       46           2051       235      304           2358
 7  2013     7     1       48           2001       287      308           2305
 8  2013     7     1       58           2155       183      335             43
 9  2013     7     1      100           2146       194      327             30
10  2013     7     1      100           2245       135      337            135
# ℹ 86,316 more rows
# ℹ 11 more variables: arr_delay <dbl>, carrier <chr>, flight <int>,
#   tailnum <chr>, origin <chr>, dest <chr>, air_time <dbl>, distance <dbl>,
#   hour <dbl>, minute <dbl>, time_hour <dttm>

Arrived more than two hours late, but didn’t leave late

flights |>     
  filter(dep_delay <= 0) 

# A tibble: 200,089 × 19
    year month   day dep_time sched_dep_time dep_delay arr_time sched_arr_time
   <int> <int> <int>    <int>          <int>     <dbl>    <int>          <int>
 1  2013     1     1      544            545        -1     1004           1022
 2  2013     1     1      554            600        -6      812            837
 3  2013     1     1      554            558        -4      740            728
 4  2013     1     1      555            600        -5      913            854
 5  2013     1     1      557            600        -3      709            723
 6  2013     1     1      557            600        -3      838            846
 7  2013     1     1      558            600        -2      753            745
 8  2013     1     1      558            600        -2      849            851
 9  2013     1     1      558            600        -2      853            856
10  2013     1     1      558            600        -2      924            917
# ℹ 200,079 more rows
# ℹ 11 more variables: arr_delay <dbl>, carrier <chr>, flight <int>,
#   tailnum <chr>, origin <chr>, dest <chr>, air_time <dbl>, distance <dbl>,
#   hour <dbl>, minute <dbl>, time_hour <dttm>

Were delayed by at least an hour, but made up over 30 minutes in flight

flights |>     
  filter(dep_delay - arr_delay >= 30) 

# A tibble: 20,395 × 19
    year month   day dep_time sched_dep_time dep_delay arr_time sched_arr_time
   <int> <int> <int>    <int>          <int>     <dbl>    <int>          <int>
 1  2013     1     1      701            700         1     1123           1154
 2  2013     1     1      820            820         0     1249           1329
 3  2013     1     1      840            845        -5     1311           1350
 4  2013     1     1      857            851         6     1157           1222
 5  2013     1     1      909            810        59     1331           1315
 6  2013     1     1     1025            951        34     1258           1302
 7  2013     1     1     1153           1200        -7     1450           1529
 8  2013     1     1     1245           1249        -4     1722           1800
 9  2013     1     1     1610           1615        -5     1913           1948
10  2013     1     1     1625           1550        35     2054           2050
# ℹ 20,385 more rows
# ℹ 11 more variables: arr_delay <dbl>, carrier <chr>, flight <int>,
#   tailnum <chr>, origin <chr>, dest <chr>, air_time <dbl>, distance <dbl>,
#   hour <dbl>, minute <dbl>, time_hour <dttm>
…
contains(): Contains a literal string.

matches(): Matches a regular expression.

To change this, we can set the argument ignore.case = FALSE.

Rename air_time to air_time_min to indicate units of measurement and move it to the beginning of the data frame.

The following code does the job, as shown in the output:--

flights |>
  rename(air_time_min = air_time) |>
  relocate(air_time_min)

# A tibble: 336,776 × 19
   air_time_min  year month   day dep_time sched_dep_time dep_delay arr_time
          <dbl> <int> <int> <int>    <int>          <int>     <dbl>    <int>
 1          227  2013     1     1      517            515         2      830
 2          227  2013     1     1      533            529         4      850
 3          160  2013     1     1      542            540         2      923
 4          183  2013     1     1      544            545        -1     1004
 5          116  2013     1     1      554            600        -6      812
 6          150  2013     1     1      554            558        -4      740
 7          158  2013     1     1      555            600        -5      913
 8           53  2013     1     1      557            600        -3      709
 9          140  2013     1     1      557            600        -3      838
10          138  2013     1     1      558            600        -2      753
# ℹ 336,766 more rows
# ℹ 11 more variables: sched_arr_time <int>, arr_delay <dbl>, carrier <chr>,
#   flight <int>, tailnum <chr>, origin <chr>, dest <chr>, distance <dbl>,
#   hour <dbl>, minute <dbl>, time_hour <dttm>
…
