Book Solutions - Chapter 27
…
Grouping diamonds by cut, clarity, and color then counting the number of observations and computing the mean of each numeric column.

ggplot2::diamonds |>
  group_by(cut, clarity, color) |>
  summarise(
    across(
    .cols = where(is.numeric),
    .fns = function(x) mean(x, na.rm = TRUE)
    ),
    n = n()
    )

# A tibble: 276 × 11
# Groups:   cut, clarity [40]
   cut   clarity color carat depth table price     x     y     z     n
   <ord> <ord>   <ord> <dbl> <dbl> <dbl> <dbl> <dbl> <dbl> <dbl> <int>
 1 Fair  I1      D     1.88   65.6  56.8 7383   7.52  7.42  4.90     4
 2 Fair  I1      E     0.969  65.6  58.1 2095.  6.17  6.06  4.01     9
 3 Fair  I1      F     1.02   65.7  58.4 2544.  6.14  6.04  4.00    35
 4 Fair  I1      G     1.23   65.3  57.7 3187.  6.52  6.43  4.23    53
 5 Fair  I1      H     1.50   65.8  58.4 4213.  6.96  6.86  4.55    52
 6 Fair  I1      I     1.32   65.7  58.4 3501   6.76  6.65  4.41    34
 7 Fair  I1      J     1.99   66.5  57.9 5795.  7.55  7.46  4.99    23
 8 Fair  SI2     D     1.02   64.7  58.6 4355.  6.24  6.17  4.01    56
 9 Fair  SI2     E     1.02   63.4  59.5 4172.  6.28  6.22  3.96    78
10 Fair  SI2     F     1.08   63.8  59.5 4520.  6.36  6.30  4.04    89
# ℹ 266 more rows
…
